{
  "PresetList" : [
    {
      "AlignAVStart" : false,
      "AudioCopyMask" : [
        "copy:aac",
        "copy:ac3",
        "copy:eac3",
        "copy:dtshd",
        "copy:dts",
        "copy:mp3",
        "copy:truehd",
        "copy:flac"
      ],
      "AudioEncoderFallback" : "ac3",
      "AudioLanguageList" : [
        "eng",
        "spa"
      ],
      "AudioList" : [
        {
          "AudioBitrate" : 160,
          "AudioCompressionLevel" : -1,
          "AudioDitherMethod" : "auto",
          "AudioEncoder" : "copy:ac3",
          "AudioMixdown" : "dpl2",
          "AudioNormalizeMixLevel" : false,
          "AudioSamplerate" : "auto",
          "AudioTrackDRCSlider" : 0,
          "AudioTrackGainSlider" : 0,
          "AudioTrackQuality" : -1,
          "AudioTrackQualityEnable" : false
        },
        {
          "AudioBitrate" : 160,
          "AudioCompressionLevel" : -1,
          "AudioDitherMethod" : "auto",
          "AudioEncoder" : "ca_aac",
          "AudioMixdown" : "dpl2",
          "AudioNormalizeMixLevel" : false,
          "AudioSamplerate" : "auto",
          "AudioTrackDRCSlider" : 1,
          "AudioTrackGainSlider" : 1,
          "AudioTrackQuality" : -1,
          "AudioTrackQualityEnable" : false
        },
        {
          "AudioBitrate" : 160,
          "AudioCompressionLevel" : -1,
          "AudioDitherMethod" : "auto",
          "AudioEncoder" : "copy:dts",
          "AudioMixdown" : "dpl1",
          "AudioNormalizeMixLevel" : false,
          "AudioSamplerate" : "auto",
          "AudioTrackDRCSlider" : 0,
          "AudioTrackGainSlider" : 0,
          "AudioTrackQuality" : -1,
          "AudioTrackQualityEnable" : false
        },
        {
          "AudioBitrate" : -1,
          "AudioCompressionLevel" : -1,
          "AudioDitherMethod" : "auto",
          "AudioEncoder" : "flac16",
          "AudioMixdown" : "stereo",
          "AudioNormalizeMixLevel" : false,
          "AudioSamplerate" : "auto",
          "AudioTrackDRCSlider" : 0,
          "AudioTrackGainSlider" : 0,
          "AudioTrackQuality" : -1,
          "AudioTrackQualityEnable" : false
        },
        {
          "AudioBitrate" : 160,
          "AudioCompressionLevel" : -1,
          "AudioDitherMethod" : "auto",
          "AudioEncoder" : "copy:truehd",
          "AudioMixdown" : "dpl1",
          "AudioNormalizeMixLevel" : false,
          "AudioSamplerate" : "auto",
          "AudioTrackDRCSlider" : 0,
          "AudioTrackGainSlider" : 0,
          "AudioTrackQuality" : -1,
          "AudioTrackQualityEnable" : false
        },
        {
          "AudioBitrate" : 160,
          "AudioCompressionLevel" : -1,
          "AudioDitherMethod" : "auto",
          "AudioEncoder" : "copy:dtshd",
          "AudioMixdown" : "dpl1",
          "AudioNormalizeMixLevel" : false,
          "AudioSamplerate" : "auto",
          "AudioTrackDRCSlider" : 0,
          "AudioTrackGainSlider" : 0,
          "AudioTrackQuality" : -1,
          "AudioTrackQualityEnable" : false
        }
      ],
      "AudioSecondaryEncoderMode" : false,
      "AudioTrackSelectionBehavior" : "first",
      "ChapterMarkers" : true,
      "ChildrenArray" : [

      ],
      "Default" : false,
      "FileFormat" : "av_mkv",
      "Folder" : false,
      "FolderOpen" : false,
      "InlineParameterSets" : false,
      "Mp4HttpOptimize" : false,
      "Mp4iPodCompatible" : false,
      "PictureAutoCrop" : true,
      "PictureBottomCrop" : 278,
      "PictureChromaSmoothCustom" : "",
      "PictureChromaSmoothPreset" : "off",
      "PictureChromaSmoothTune" : "none",
      "PictureCombDetectCustom" : "",
      "PictureCombDetectPreset" : "default",
      "PictureDARWidth" : 0,
      "PictureDeblockCustom" : "strength=strong:thresh=20:blocksize=8",
      "PictureDeblockPreset" : "off",
      "PictureDeblockTune" : "medium",
      "PictureDeinterlaceCustom" : "",
      "PictureDeinterlaceFilter" : "decomb",
      "PictureDeinterlacePreset" : "default",
      "PictureDenoiseCustom" : "",
      "PictureDenoiseFilter" : "off",
      "PictureDenoisePreset" : "light",
      "PictureDenoiseTune" : "none",
      "PictureDetelecine" : "off",
      "PictureDetelecineCustom" : "",
      "PictureForceHeight" : 0,
      "PictureForceWidth" : 0,
      "PictureHeight" : 0,
      "PictureItuPAR" : false,
      "PictureKeepRatio" : true,
      "PictureLeftCrop" : 0,
      "PictureLooseCrop" : false,
      "PictureModulus" : 2,
      "PicturePAR" : "auto",
      "PicturePARHeight" : 1,
      "PicturePARWidth" : 1,
      "PictureRightCrop" : 2,
      "PictureRotate" : "angle=0:hflip=0",
      "PictureSharpenCustom" : "",
      "PictureSharpenFilter" : "off",
      "PictureSharpenPreset" : "medium",
      "PictureSharpenTune" : "none",
      "PictureTopCrop" : 276,
      "PictureWidth" : 0,
      "PresetDescription" : "",
      "PresetName" : "File tune 1080p BluRay",
      "SubtitleAddCC" : false,
      "SubtitleAddForeignAudioSearch" : false,
      "SubtitleAddForeignAudioSubtitle" : false,
      "SubtitleBurnBDSub" : false,
      "SubtitleBurnBehavior" : "none",
      "SubtitleBurnDVDSub" : false,
      "SubtitleLanguageList" : [
        "eng"
      ],
      "SubtitleTrackSelectionBehavior" : "all",
      "Type" : 1,
      "UsesPictureFilters" : true,
      "UsesPictureSettings" : 2,
      "VideoAvgBitrate" : 0,
      "VideoColorMatrixCodeOverride" : 0,
      "VideoEncoder" : "x264",
      "VideoFramerate" : "auto",
      "VideoFramerateMode" : "cfr",
      "VideoGrayScale" : false,
      "VideoLevel" : "4.0",
      "VideoOptionExtra" : "",
      "VideoPreset" : "slow",
      "VideoProfile" : "high",
      "VideoQSVAsyncDepth" : 4,
      "VideoQSVDecode" : false,
      "VideoQualitySlider" : 21,
      "VideoQualityType" : 2,
      "VideoScaler" : "swscale",
      "VideoTune" : "film",
      "VideoTurboTwoPass" : false,
      "VideoTwoPass" : false,
      "x264Option" : "",
      "x264UseAdvancedOptions" : false
    }
  ],
  "VersionMajor" : 42,
  "VersionMicro" : 0,
  "VersionMinor" : 0
}
